{
  "npmScope": "my",
  "implicitDependencies": {
    "angular.json": "*",
    "package.json": "*",
    "tsconfig.json": "*",
    "tslint.json": "*",
    "nx.json": "*"
  },
  "projects": {
    "cv-e2e": {
      "tags": []
    },
    "cv": {
      "tags": []
    },
    "ui": {
      "tags": []
    },
    "auth": {
      "tags": []
    },
    "docs": {
      "tags": []
    },
    "users": {
      "tags": []
    },
    "core": {
      "tags": []
    }
  }
}
